{
  "editorName": "Steffen",
  "name": "TestMap",
  "numberOfPlayers": 2,
  "_id": "4",
  "maxX": "10",
  "maxY": "10",
  "fields": [
    {
      "x": 8,
      "y": 7,
      "type": "mountain",
      "fieldID": "87"
    },
    {
      "x": 2,
      "y": 2,
      "type": "forest",
      "fieldID": "22"
    },
    {
      "x": 0,
      "y": 3,
      "type": "forest",
      "fieldID": "03"
    },
    {
      "x": 13,
      "y": 2,
      "type": "hill",
      "fieldID": "132"
    },
    {
      "x": 8,
      "y": 1,
      "type": "beach",
      "fieldID": "81"
    },
    {
      "x": 6,
      "y": 0,
      "type": "beach",
      "fieldID": "60"
    },
    {
      "x": 1,
      "y": 7,
      "type": "water",
      "fieldID": "17"
    },
    {
      "x": 8,
      "y": 4,
      "type": "building",
      "building": {
        "field": "84",
        "captureValue": 0,
        "type": "city"
      },
      "fieldID": "84"
    },
    {
      "x": 2,
      "y": 8,
      "type": "water",
      "fieldID": "28"
    },
    {
      "x": 6,
      "y": 7,
      "type": "mountain",
      "fieldID": "67"
    },
    {
      "x": 8,
      "y": 9,
      "type": "mountain",
      "fieldID": "89"
    },
    {
      "x": 1,
      "y": 4,
      "type": "street",
      "fieldID": "14"
    },
    {
      "x": 12,
      "y": 8,
      "type": "grass",
      "fieldID": "128"
    },
    {
      "x": 4,
      "y": 1,
      "type": "building",
      "building": {
        "field": "41",
        "captureValue": 0,
        "type": "factory"
      },
      "fieldID": "41"
    },
    {
      "x": 14,
      "y": 8,
      "type": "grass",
      "fieldID": "148"
    },
    {
      "x": 12,
      "y": 2,
      "type": "hill",
      "fieldID": "122"
    },
    {
      "x": 9,
      "y": 2,
      "type": "beach",
      "fieldID": "92"
    },
    {
      "x": 2,
      "y": 3,
      "type": "forest",
      "fieldID": "23"
    },
    {
      "x": 14,
      "y": 9,
      "type": "grass",
      "fieldID": "149"
    },
    {
      "x": 5,
      "y": 4,
      "type": "forest",
      "fieldID": "54"
    },
    {
      "x": 9,
      "y": 1,
      "type": "beach",
      "fieldID": "91"
    },
    {
      "x": 1,
      "y": 2,
      "type": "forest",
      "fieldID": "12"
    },
    {
      "x": 5,
      "y": 9,
      "type": "building",
      "building": {
        "field": "59",
        "captureValue": 0,
        "type": "factory"
      },
      "fieldID": "59"
    },
    {
      "x": 2,
      "y": 4,
      "type": "street",
      "fieldID": "24"
    },
    {
      "x": 0,
      "y": 8,
      "type": "water",
      "fieldID": "08"
    },
    {
      "x": 3,
      "y": 3,
      "type": "forest",
      "fieldID": "33"
    },
    {
      "x": 9,
      "y": 7,
      "type": "mountain",
      "fieldID": "97"
    },
    {
      "x": 9,
      "y": 4,
      "type": "building",
      "building": {
        "field": "94",
        "captureValue": 0,
        "type": "city"
      },
      "fieldID": "94"
    },
    {
      "x": 13,
      "y": 5,
      "type": "street",
      "fieldID": "135"
    },
    {
      "x": 4,
      "y": 5,
      "type": "building",
      "building": {
        "field": "45",
        "captureValue": 0,
        "type": "city"
      },
      "fieldID": "45"
    },
    {
      "x": 6,
      "y": 4,
      "type": "building",
      "building": {
        "field": "64",
        "captureValue": 0,
        "type": "factory"
      },
      "fieldID": "64"
    },
    {
      "x": 8,
      "y": 2,
      "type": "beach",
      "fieldID": "82"
    },
    {
      "x": 7,
      "y": 7,
      "type": "mountain",
      "fieldID": "77"
    },
    {
      "x": 13,
      "y": 4,
      "type": "street",
      "fieldID": "134"
    },
    {
      "x": 4,
      "y": 3,
      "type": "building",
      "building": {
        "field": "43",
        "captureValue": 0,
        "type": "factory"
      },
      "fieldID": "43"
    },
    {
      "x": 11,
      "y": 6,
      "type": "grass",
      "fieldID": "116"
    },
    {
      "x": 3,
      "y": 9,
      "type": "water",
      "fieldID": "39"
    },
    {
      "x": 11,
      "y": 0,
      "type": "hill",
      "fieldID": "110"
    },
    {
      "x": 2,
      "y": 9,
      "type": "water",
      "fieldID": "29"
    },
    {
      "x": 11,
      "y": 7,
      "type": "grass",
      "fieldID": "117"
    },
    {
      "x": 12,
      "y": 3,
      "type": "hill",
      "fieldID": "123"
    },
    {
      "x": 13,
      "y": 6,
      "type": "grass",
      "fieldID": "136"
    },
    {
      "x": 1,
      "y": 1,
      "type": "forest",
      "fieldID": "11"
    },
    {
      "x": 6,
      "y": 8,
      "type": "mountain",
      "fieldID": "68"
    },
    {
      "x": 12,
      "y": 0,
      "type": "hill",
      "fieldID": "120"
    },
    {
      "x": 11,
      "y": 4,
      "type": "street",
      "fieldID": "114"
    },
    {
      "x": 5,
      "y": 0,
      "type": "building",
      "building": {
        "field": "50",
        "captureValue": 0,
        "type": "factory"
      },
      "fieldID": "50"
    },
    {
      "x": 0,
      "y": 0,
      "type": "forest",
      "fieldID": "00"
    },
    {
      "x": 14,
      "y": 1,
      "type": "hill",
      "fieldID": "141"
    },
    {
      "x": 10,
      "y": 0,
      "type": "building",
      "building": {
        "field": "100",
        "captureValue": 0,
        "type": "city"
      },
      "fieldID": "100"
    },
    {
      "x": 7,
      "y": 3,
      "type": "beach",
      "fieldID": "73"
    },
    {
      "x": 6,
      "y": 5,
      "type": "hill",
      "fieldID": "65"
    },
    {
      "x": 3,
      "y": 0,
      "type": "forest",
      "fieldID": "30"
    },
    {
      "x": 0,
      "y": 4,
      "type": "street",
      "fieldID": "04"
    },
    {
      "x": 1,
      "y": 5,
      "type": "street",
      "fieldID": "15"
    },
    {
      "x": 6,
      "y": 3,
      "type": "beach",
      "fieldID": "63"
    },
    {
      "x": 11,
      "y": 1,
      "type": "hill",
      "fieldID": "111"
    },
    {
      "x": 12,
      "y": 6,
      "type": "grass",
      "fieldID": "126"
    },
    {
      "x": 14,
      "y": 4,
      "type": "street",
      "fieldID": "144"
    },
    {
      "x": 3,
      "y": 1,
      "type": "forest",
      "fieldID": "31"
    },
    {
      "x": 5,
      "y": 5,
      "type": "grass",
      "fieldID": "55"
    },
    {
      "x": 4,
      "y": 9,
      "type": "building",
      "building": {
        "field": "49",
        "captureValue": 0,
        "type": "factory"
      },
      "fieldID": "49"
    },
    {
      "x": 10,
      "y": 9,
      "type": "building",
      "building": {
        "field": "109",
        "captureValue": 0,
        "type": "city"
      },
      "fieldID": "109"
    },
    {
      "x": 4,
      "y": 6,
      "type": "building",
      "building": {
        "field": "46",
        "captureValue": 0,
        "type": "factory"
      },
      "fieldID": "46"
    },
    {
      "x": 7,
      "y": 2,
      "type": "beach",
      "fieldID": "72"
    },
    {
      "x": 1,
      "y": 0,
      "type": "forest",
      "fieldID": "10"
    },
    {
      "x": 5,
      "y": 6,
      "type": "building",
      "building": {
        "field": "56",
        "captureValue": 0,
        "type": "factory"
      },
      "fieldID": "56"
    },
    {
      "x": 8,
      "y": 0,
      "type": "beach",
      "fieldID": "80"
    },
    {
      "x": 14,
      "y": 5,
      "type": "street",
      "fieldID": "145"
    },
    {
      "x": 12,
      "y": 4,
      "type": "street",
      "fieldID": "124"
    },
    {
      "x": 10,
      "y": 4,
      "type": "building",
      "building": {
        "field": "104",
        "captureValue": 0,
        "type": "city"
      },
      "fieldID": "104"
    },
    {
      "x": 3,
      "y": 6,
      "type": "water",
      "fieldID": "36"
    },
    {
      "x": 0,
      "y": 1,
      "type": "forest",
      "fieldID": "01"
    },
    {
      "x": 1,
      "y": 9,
      "type": "water",
      "fieldID": "19"
    },
    {
      "x": 3,
      "y": 8,
      "type": "water",
      "fieldID": "38"
    },
    {
      "x": 11,
      "y": 9,
      "type": "grass",
      "fieldID": "119"
    },
    {
      "x": 3,
      "y": 7,
      "type": "water",
      "fieldID": "37"
    },
    {
      "x": 2,
      "y": 7,
      "type": "water",
      "fieldID": "27"
    },
    {
      "x": 14,
      "y": 6,
      "type": "grass",
      "fieldID": "146"
    },
    {
      "x": 13,
      "y": 8,
      "type": "grass",
      "fieldID": "138"
    },
    {
      "x": 7,
      "y": 1,
      "type": "beach",
      "fieldID": "71"
    },
    {
      "x": 8,
      "y": 3,
      "type": "beach",
      "fieldID": "83"
    },
    {
      "x": 11,
      "y": 5,
      "type": "street",
      "fieldID": "115"
    },
    {
      "x": 7,
      "y": 5,
      "type": "building",
      "building": {
        "field": "75",
        "captureValue": 0,
        "type": "city"
      },
      "fieldID": "75"
    },
    {
      "x": 13,
      "y": 0,
      "type": "hill",
      "fieldID": "130"
    },
    {
      "x": 6,
      "y": 2,
      "type": "beach",
      "fieldID": "62"
    },
    {
      "x": 6,
      "y": 9,
      "type": "mountain",
      "fieldID": "69"
    },
    {
      "x": 5,
      "y": 7,
      "type": "building",
      "building": {
        "field": "57",
        "captureValue": 0,
        "type": "factory"
      },
      "fieldID": "57"
    },
    {
      "x": 13,
      "y": 7,
      "type": "grass",
      "fieldID": "137"
    },
    {
      "x": 7,
      "y": 6,
      "type": "mountain",
      "fieldID": "76"
    },
    {
      "x": 0,
      "y": 7,
      "type": "water",
      "fieldID": "07"
    },
    {
      "x": 2,
      "y": 5,
      "type": "street",
      "fieldID": "25"
    },
    {
      "x": 12,
      "y": 7,
      "type": "grass",
      "fieldID": "127"
    },
    {
      "x": 5,
      "y": 1,
      "type": "building",
      "building": {
        "field": "51",
        "captureValue": 0,
        "type": "factory"
      },
      "fieldID": "51"
    },
    {
      "x": 1,
      "y": 8,
      "type": "water",
      "fieldID": "18"
    },
    {
      "x": 8,
      "y": 5,
      "type": "building",
      "building": {
        "field": "85",
        "captureValue": 0,
        "type": "city"
      },
      "fieldID": "85"
    },
    {
      "x": 4,
      "y": 2,
      "type": "building",
      "building": {
        "field": "42",
        "captureValue": 0,
        "type": "factory"
      },
      "fieldID": "42"
    },
    {
      "x": 10,
      "y": 1,
      "type": "building",
      "building": {
        "field": "101",
        "captureValue": 0,
        "type": "city"
      },
      "fieldID": "101"
    },
    {
      "x": 0,
      "y": 6,
      "type": "water",
      "fieldID": "06"
    },
    {
      "x": 10,
      "y": 5,
      "type": "building",
      "building": {
        "field": "105",
        "captureValue": 0,
        "type": "city"
      },
      "fieldID": "105"
    },
    {
      "x": 13,
      "y": 9,
      "type": "grass",
      "fieldID": "139"
    },
    {
      "x": 13,
      "y": 3,
      "type": "hill",
      "fieldID": "133"
    },
    {
      "x": 0,
      "y": 9,
      "type": "water",
      "fieldID": "09"
    },
    {
      "x": 8,
      "y": 8,
      "type": "mountain",
      "fieldID": "88"
    },
    {
      "x": 12,
      "y": 9,
      "type": "grass",
      "fieldID": "129"
    },
    {
      "x": 5,
      "y": 2,
      "type": "building",
      "building": {
        "field": "52",
        "captureValue": 0,
        "type": "factory"
      },
      "fieldID": "52"
    },
    {
      "x": 4,
      "y": 4,
      "type": "mountain",
      "fieldID": "44"
    },
    {
      "x": 10,
      "y": 7,
      "type": "building",
      "building": {
        "field": "107",
        "captureValue": 0,
        "type": "city"
      },
      "fieldID": "107"
    },
    {
      "x": 11,
      "y": 8,
      "type": "grass",
      "fieldID": "118"
    },
    {
      "x": 13,
      "y": 1,
      "type": "hill",
      "fieldID": "131"
    },
    {
      "x": 7,
      "y": 9,
      "type": "mountain",
      "fieldID": "79"
    },
    {
      "x": 3,
      "y": 5,
      "type": "street",
      "fieldID": "35"
    },
    {
      "x": 14,
      "y": 0,
      "type": "hill",
      "fieldID": "140"
    },
    {
      "x": 6,
      "y": 1,
      "type": "beach",
      "fieldID": "61"
    },
    {
      "x": 8,
      "y": 6,
      "type": "mountain",
      "fieldID": "86"
    },
    {
      "x": 9,
      "y": 9,
      "type": "mountain",
      "fieldID": "99"
    },
    {
      "x": 14,
      "y": 7,
      "type": "grass",
      "fieldID": "147"
    },
    {
      "x": 2,
      "y": 6,
      "type": "water",
      "fieldID": "26"
    },
    {
      "x": 9,
      "y": 3,
      "type": "beach",
      "fieldID": "93"
    },
    {
      "x": 1,
      "y": 6,
      "type": "water",
      "fieldID": "16"
    },
    {
      "x": 9,
      "y": 0,
      "type": "beach",
      "fieldID": "90"
    },
    {
      "x": 3,
      "y": 2,
      "type": "forest",
      "fieldID": "32"
    },
    {
      "x": 5,
      "y": 8,
      "type": "building",
      "building": {
        "field": "58",
        "captureValue": 0,
        "type": "factory"
      },
      "fieldID": "58"
    },
    {
      "x": 4,
      "y": 0,
      "type": "building",
      "building": {
        "field": "40",
        "captureValue": 0,
        "type": "factory"
      },
      "fieldID": "40"
    },
    {
      "x": 9,
      "y": 5,
      "type": "building",
      "building": {
        "field": "95",
        "captureValue": 0,
        "type": "city"
      },
      "fieldID": "95"
    },
    {
      "x": 3,
      "y": 4,
      "type": "street",
      "fieldID": "34"
    },
    {
      "x": 9,
      "y": 8,
      "type": "mountain",
      "fieldID": "98"
    },
    {
      "x": 2,
      "y": 1,
      "type": "forest",
      "fieldID": "21"
    },
    {
      "x": 12,
      "y": 1,
      "type": "hill",
      "fieldID": "121"
    },
    {
      "x": 0,
      "y": 5,
      "type": "street",
      "fieldID": "05"
    },
    {
      "x": 2,
      "y": 0,
      "type": "forest",
      "fieldID": "20"
    },
    {
      "x": 14,
      "y": 2,
      "type": "hill",
      "fieldID": "142"
    },
    {
      "x": 10,
      "y": 6,
      "type": "building",
      "building": {
        "field": "106",
        "captureValue": 0,
        "type": "city"
      },
      "fieldID": "106"
    },
    {
      "x": 6,
      "y": 6,
      "type": "mountain",
      "fieldID": "66"
    },
    {
      "x": 10,
      "y": 2,
      "type": "building",
      "building": {
        "field": "102",
        "captureValue": 0,
        "type": "city"
      },
      "fieldID": "102"
    },
    {
      "x": 10,
      "y": 8,
      "type": "building",
      "building": {
        "field": "108",
        "captureValue": 0,
        "type": "city"
      },
      "fieldID": "108"
    },
    {
      "x": 14,
      "y": 3,
      "type": "hill",
      "fieldID": "143"
    },
    {
      "x": 10,
      "y": 3,
      "type": "building",
      "building": {
        "field": "103",
        "captureValue": 0,
        "type": "city"
      },
      "fieldID": "103"
    },
    {
      "x": 7,
      "y": 4,
      "type": "building",
      "building": {
        "field": "74",
        "captureValue": 0,
        "type": "city"
      },
      "fieldID": "74"
    },
    {
      "x": 9,
      "y": 6,
      "type": "mountain",
      "fieldID": "96"
    },
    {
      "x": 11,
      "y": 2,
      "type": "hill",
      "fieldID": "112"
    },
    {
      "x": 4,
      "y": 8,
      "type": "building",
      "building": {
        "field": "48",
        "captureValue": 0,
        "type": "factory"
      },
      "fieldID": "48"
    },
    {
      "x": 12,
      "y": 5,
      "type": "street",
      "fieldID": "125"
    },
    {
      "x": 11,
      "y": 3,
      "type": "hill",
      "fieldID": "113"
    },
    {
      "x": 4,
      "y": 7,
      "type": "building",
      "building": {
        "field": "47",
        "captureValue": 0,
        "type": "factory"
      },
      "fieldID": "47"
    },
    {
      "x": 0,
      "y": 2,
      "type": "forest",
      "fieldID": "02"
    },
    {
      "x": 7,
      "y": 8,
      "type": "mountain",
      "fieldID": "78"
    },
    {
      "x": 7,
      "y": 0,
      "type": "beach",
      "fieldID": "70"
    },
    {
      "x": 5,
      "y": 3,
      "type": "building",
      "building": {
        "field": "53",
        "captureValue": 0,
        "type": "factory"
      },
      "fieldID": "53"
    },
    {
      "x": 1,
      "y": 3,
      "type": "forest",
      "fieldID": "13"
    }
  ]
}